{
    "_id": "LNd5u19GqC51ngby",
    "data": {
        "MAP": {
            "value": ""
        },
        "baseItem": "alchemical-bomb",
        "bonus": {
            "value": null
        },
        "bonusDamage": {
            "value": null
        },
        "category": "martial",
        "containerId": null,
        "damage": {
            "damageType": "positive",
            "dice": 1,
            "die": "d8",
            "value": ""
        },
        "description": {
            "value": "<p><strong>Usage</strong> held in 1 hand</p>\n<p><strong>Activate</strong> <span class=\"pf2-icon\">A</span> Strike</p>\n<hr />\n<p>These spring-loaded metal canisters contain a mixture of chemicals and salts that drain and disintegrate nearby undead creatures.</p>\n<p>A ghost charge deals [[/r 1d8]] positive damage and 1 positive splash damage, though as usual for positive damage, this damage harms only undead and creatures with negative healing. A primary target that takes damage from a ghost charge becomes @Compendium[pf2e.conditionitems.Enfeebled]{Enfeebled 1} until the start of your next turn.</p>\n<p>Ghost charges are designed to explode even on contact with a spiritual substance, making them ideal for damaging incorporeal undead.</p>"
        },
        "equippedBulk": {
            "value": ""
        },
        "group": "bomb",
        "hardness": 0,
        "hp": {
            "brokenThreshold": 0,
            "max": 0,
            "value": 0
        },
        "level": {
            "value": 1
        },
        "negateBulk": {
            "value": "0"
        },
        "potencyRune": {
            "value": null
        },
        "preciousMaterial": {
            "value": ""
        },
        "preciousMaterialGrade": {
            "value": ""
        },
        "price": {
            "value": {
                "gp": 3
            }
        },
        "property1": {
            "critDamage": "",
            "critDamageType": "",
            "critDice": null,
            "critDie": "",
            "criticalConditionType": "",
            "criticalConditionValue": null,
            "damageType": "",
            "dice": null,
            "die": "",
            "strikeConditionType": "",
            "strikeConditionValue": null,
            "value": ""
        },
        "propertyRune1": {
            "value": ""
        },
        "propertyRune2": {
            "value": ""
        },
        "propertyRune3": {
            "value": ""
        },
        "propertyRune4": {
            "value": ""
        },
        "quantity": 1,
        "range": 20,
        "reload": {
            "value": "-"
        },
        "rules": [
            {
                "key": "Note",
                "selector": "{item|_id}-damage",
                "text": "<p class='compact-text'>@Localize[PF2E.BombNotes.GhostCharge.Greater.success]</p>"
            }
        ],
        "size": "med",
        "source": {
            "value": "Pathfinder Advanced Player's Guide"
        },
        "splashDamage": {
            "value": 1
        },
        "stackGroup": null,
        "strikingRune": {
            "value": ""
        },
        "traits": {
            "custom": "",
            "rarity": "common",
            "value": [
                "alchemical",
                "bomb",
                "consumable",
                "positive",
                "splash"
            ]
        },
        "usage": {
            "value": "held-in-one-hand"
        },
        "weight": {
            "value": "L"
        }
    },
    "img": "systems/pf2e/icons/equipment/alchemical-items/alchemical-bombs/ghost-charge.webp",
    "name": "Ghost Charge (Lesser)",
    "type": "weapon"
}
